%!PS-Adobe-3.0 EPSF-3.0
%%Creator: GIMP PostScript file plugin V 1.17 by Peter Kirchgessner
%%Title: Tshape.eps
%%CreationDate: Wed Apr 25 20:22:36 2012
%%DocumentData: Clean7Bit
%%LanguageLevel: 2
%%Pages: 1
%%BoundingBox: 14 14 296 336
%%EndComments
%%BeginProlog
% Use own dictionary to avoid conflicts
10 dict begin
%%EndProlog
%%Page: 1 1
% Translate for offset
14.173228346456694 14.173228346456694 translate
% Translate to begin of first scanline
0 320.99820102558351 translate
280.99842519685041 -320.99820102558351 scale
% Image geometry
281 321 8
% Transformation matrix
[ 281 0 0 321 0 0 ]
% Strings to hold RGB-samples per scanline
/rstr 281 string def
/gstr 281 string def
/bstr 281 string def
{currentfile /ASCII85Decode filter /RunLengthDecode filter rstr readstring pop}
{currentfile /ASCII85Decode filter /RunLengthDecode filter gstr readstring pop}
{currentfile /ASCII85Decode filter /RunLengthDecode filter bstr readstring pop}
true 3
%%BeginData:        36881 ASCII Bytes
colorimage
JH16$kQ$,~>
JH16$kQ$,~>
JH16$kQ$,~>
JH16$kQ$,~>
JH16$kQ$,~>
JH16$kQ$,~>
JH16$kQ$,~>
JH16$kQ$,~>
JH16$kQ$,~>
JH16$kQ$,~>
JH16$kQ$,~>
JH16$kQ$,~>
JH16$kQ$,~>
JH16$kQ$,~>
JH16$kQ$,~>
JH16$kQ$,~>
JH16$kQ$,~>
JH16$kQ$,~>
JH16$kQ$,~>
JH16$kQ$,~>
JH16$kQ$,~>
JH16$kQ$,~>
JH16$kQ$,~>
JH16$kQ$,~>
JH16$kQ$,~>
JH16$kQ$,~>
JH16$kQ$,~>
JH16$kQ$,~>
JH16$kQ$,~>
JH16$kQ$,~>
JH16$kQ$,~>
JH16$kQ$,~>
JH16$kQ$,~>
JH16$kQ$,~>
JH16$kQ$,~>
JH16$kQ$,~>
JH16$kQ$,~>
JH16$kQ$,~>
JH16$kQ$,~>
JH16$kQ$,~>
JH16$kQ$,~>
JH16$kQ$,~>
JH16$kQ$,~>
JH16$kQ$,~>
JH16$kQ$,~>
JH16$kQ$,~>
JH16$kQ$,~>
JH16$kQ$,~>
JH16$kQ$,~>
JH16$kQ$,~>
JH16$kQ$,~>
JH16$kQ$,~>
JH16$kQ$,~>
JH16$kQ$,~>
JH16$kQ$,~>
JH16$kQ$,~>
JH16$kQ$,~>
JH16$kQ$,~>
JH16$kQ$,~>
JH16$kQ$,~>
JH16$kQ$,~>
JH16$kQ$,~>
JH16$kQ$,~>
JH16$kQ$,~>
JH16$kQ$,~>
JH16$kQ$,~>
JH16$kQ$,~>
JH16$kQ$,~>
JH16$kQ$,~>
JH16$kQ$,~>
JH16$kQ$,~>
JH16$kQ$,~>
JH16$kQ$,~>
JH16$kQ$,~>
JH16$kQ$,~>
JH16$kQ$,~>
JH16$kQ$,~>
JH16$kQ$,~>
JH16$kQ$,~>
JH16$kQ$,~>
JH16$kQ$,~>
JH16$kQ$,~>
JH16$kQ$,~>
JH16$kQ$,~>
JH16$kQ$,~>
JH16$kQ$,~>
JH16$kQ$,~>
JH16$kQ$,~>
JH16$kQ$,~>
JH16$kQ$,~>
])W$;"pk_M'GoLB"r@sb%1*4@JH4[0J,~>
])W$;"pk_M'GoLB"r@sb%1*4@JH4[0J,~>
])W$;"pk_M'GoLB"r@sb%1*4@JH4[0J,~>
])W$>%Mg*4/iMHH"u\(\*Yo4iJH4[0J,~>
])W$>%Mg*4/iMHH"u\(\*Yo4iJH4[0J,~>
])W$>%Mg*4/iMHH"u\(\*Yo4iJH4[0J,~>
])W$A(*YCn86">M##n,T0-V/<JH4[0J,~>
])W$A(*YCn86">M##n,T0-V/<JH4[0J,~>
])W$A(*YCn86">M##n,T0-V/<JH4[0J,~>
])W$E*\TcU@WU:S#'46N5VF/fJH4[0J,~>
])W$E*\TcU@WU:S#'46N5VF/fJH4[0J,~>
])W$E*\TcU@WU:S#'46N5VF/fJH4[0J,~>
])W$H-9G(:I$*0W#*F:F;*-*9JH4[0J,~>
])W$H-9G(:I$*0W#*F:F;*-*9JH4[0J,~>
])W$H-9G(:I$*0W#*F:F;*-*9JH4[0J,~>
])W$L/kBH!QE],]#-aD@@Rr*cJH4[0J,~>
])W$L/kBH!QE],]#-aD@@Rr*cJH4[0J,~>
])W$L/kBH!QE],]#-aD@@Rr*cJH4[0J,~>
])W$O2H4a[Yg2"b#0sH8F&Y%6JH4[0J,~>
])W$O2H4a[Yg2"b#0sH8F&Y%6JH4[0J,~>
])W$O2H4a[Yg2"b#0sH8F&Y%6JH4[0J,~>
aoDSG!WrQ/#5AH.+[T[lUrDKNrs%T&Tmp?0)1_eI!.Y~>
aoDSG!WrQ/#5AH.+[T[lUrDKNrs%T&Tmp?0)1_eI!.Y~>
aoDSG!WrQ/#5AH.+[T[lUrDKNrs%T&Tmp?0)1_eI!.Y~>
aoDVK$4mpk+X["7#!cF<Q*JU!g]%K>_kDQc3uNSLiW+K~>
aoDVK$4mpk+X["7#!cF<Q*JU!g]%K>_kDQc3uNSLiW+K~>
aoDVK$4mpk+X["7#!cF<Q*JU!g]%K>_kDQc3uNSLiW+K~>
aoDVO&f`5P4%8s=#$uJ5VS1OIg]%K>_kDQc3uNSLiW+K~>
aoDVO&f`5P4%8s=#$uJ5VS1OIg]%K>_kDQc3uNSLiW+K~>
aoDVO&f`5P4%8s=#$uJ5VS1OIg]%K>_kDQc3uNSLiW+K~>
aoDVR)CRO6<FbiB#(;T.\'!Org]%K>_kDQc3uNSLiW+K~>
aoDVR)CRO6<FbiB#(;T.\'!Org]%K>_kDQc3uNSLiW+K~>
aoDVR)CRO6<FbiB#(;T.\'!Org]%K>_kDQc3uNSLiW+K~>
aoDVU+uMnrDh@eI#+V^(aO]JFg]%K>_kDQc3uNSLiW+K~>
aoDVU+uMnrDh@eI#+V^(aO]JFg]%K>_kDQc3uNSLiW+K~>
aoDVU+uMnrDh@eI#+V^(aO]JFg]%K>_kDQc3uNSLiW+K~>
aoDVY.R@3WM4saO#.hb!g#MJog]%K>_kDQc3uNSLiW+K~>
aoDVY.R@3WM4saO#.hb!g#MJog]%K>_kDQc3uNSLiW+K~>
aoDVY.R@3WM4saO#.hb!g#MJog]%K>_kDQc3uNSLiW+K~>
aoDV\1/;S>UVHWT#2.kolL4ECg]%K>_kDQc3uNSLiW+K~>
aoDV\1/;S>UVHWT#2.kolL4ECg]%K>_kDQc3uNSLiW+K~>
aoDV\1/;S>UVHWT#2.kolL4ECg]%K>_kDQc3uNSLiW+K~>
aoDV`3a-m#^#&PY"o.rkr;HWLrs%T&Tmp?0)1_eI!.Y~>
aoDV`3a-m#^#&PY"o.rkr;HWLrs%T&Tmp?0)1_eI!.Y~>
aoDV`3a-m#^#&PY"o.rkr;HWLrs%T&Tmp?0)1_eI!.Y~>
aoDV`4'd?0_r],B%d;$8N,DEF)&3bo$O?k9JH4s8J,~>
aoDV`4'd?0_r],B%d;$8N,DEF)&3bo$O?k9JH4s8J,~>
aoDV`4'd?0_r],B%d;$8N,DEF)&3bo$O?k9JH4s8J,~>
aoDV`4'd?0_r],B%dVNOSV(WP3\i0/)A3AYJH4s8J,~>
aoDV`4'd?0_r],B%dVNOSV(WP3\i0/)A3AYJH4s8J,~>
aoDV`4'd?0_r],B%dVNOSV(WP3\i0/)A3AYJH4s8J,~>
aoDV`4'd?0_r],B%e&)hY*jo[>#%@@-l`d#JH4s8J,~>
aoDV`4'd?0_r],B%e&)hY*jo[>#%@@-l`d#JH4s8J,~>
aoDV`4'd?0_r],B%e&)hY*jo[>#%@@-l`d#JH4s8J,~>
aoDVa4C3Q3_r],B%eAT*^TO,dHYQ\S2^T7BJH4s8J,~>
aoDVa4C3Q3_r],B%eAT*^TO,dHYQ\S2^T7BJH4s8J,~>
aoDVa4C3Q3_r],B%eAT*^TO,dHYQ\S2^T7BJH4s8J,~>
aoDV`4'd?0_r],B%e])Ad)<DoS;2)h7PGbbJH4s8J,~>
aoDV`4'd?0_r],B%e])Ad)<DoS;2)h7PGbbJH4s8J,~>
aoDV`4'd?0_r],B%e])Ad)<DoS;2)h7PGbbJH4s8J,~>
aoDV`4'd?0_r],B%f,YZiRuW#]q^F&<BD?.JH4s8J,~>
aoDV`4'd?0_r],B%f,YZiRuW#]q^F&<BD?.JH4s8J,~>
aoDV`4'd?0_r],B%f,YZiRuW#]q^F&<BD?.JH4s8J,~>
aoDV`4'd?0_r],B%fH.qo'bo.hS5b9@mq^MJH4s8J,~>
aoDV`4'd?0_r],B%fH.qo'bo.hS5b9@mq^MJH4s8J,~>
aoDV`4'd?0_r],B%fH.qo'bo.hS5b9@mq^MJH4s8J,~>
aoDV`4'd?0_r\l;#PQZQO`!iB#_<!@!.Y~>
aoDV`4'd?0_r\l;#PQZQO`!iB#_<!@!.Y~>
aoDV`4'd?0_r\l;#PQZQO`!iB#_<!@!.Y~>
aoDV`4'd?0_r\l;#PQZQOD[`A#_<!@!.Y~>
aoDV`4'd?0_r\l;#PQZQOD[`A#_<!@!.Y~>
aoDV`4'd?0_r\l;#PQZQOD[`A#_<!@!.Y~>
aoDV`4'd?0_r\l;#PQZROD[`A#_<!@!.Y~>
aoDV`4'd?0_r\l;#PQZROD[`A#_<!@!.Y~>
aoDV`4'd?0_r\l;#PQZROD[`A#_<!@!.Y~>
aoDV`4'd?0_r\l;#PZ`ROD[`A#_<!@!.Y~>
aoDV`4'd?0_r\l;#PZ`ROD[`A#_<!@!.Y~>
aoDV`4'd?0_r\l;#PZ`ROD[`A#_<!@!.Y~>
aoDV`4'd?0_r\l;#PZ`ROD[`A#_<!@!.Y~>
aoDV`4'd?0_r\l;#PZ`ROD[`A#_<!@!.Y~>
aoDV`4'd?0_r\l;#PZ`ROD[`A#_<!@!.Y~>
aoDV`4'd?0_r\l;#PQZROD[`A#_<!@!.Y~>
aoDV`4'd?0_r\l;#PQZROD[`A#_<!@!.Y~>
aoDV`4'd?0_r\l;#PQZROD[`A#_<!@!.Y~>
aoDV`4'd?0_r\l;#PQZQOD[`A#_<!@!.Y~>
aoDV`4'd?0_r\l;#PQZQOD[`A#_<!@!.Y~>
aoDV`4'd?0_r\l;#PQZQOD[`A#_<!@!.Y~>
aoDV`4'd?0_r\l;#PQZQO`!iB#_<!@!.Y~>
aoDV`4'd?0_r\l;#PQZQO`!iB#_<!@!.Y~>
aoDV`4'd?0_r\l;#PQZQO`!iB#_<!@!.Y~>
aoDV`4'd?0_r\l;#PQ]ROD[`A#_<!@!.Y~>
aoDV`4'd?0_r\l;#PQ]ROD[`A#_<!@!.Y~>
aoDV`4'd?0_r\l;#PQ]ROD[`A#_<!@!.Y~>
aoDV`4'd?0_r\l;#PQZQOD[`A#_<!@!.Y~>
aoDV`4'd?0_r\l;#PQZQOD[`A#_<!@!.Y~>
aoDV`4'd?0_r\l;#PQZQOD[`A#_<!@!.Y~>
aoDV`4'd?0_r\l;#PQZQO`!iB#_<!@!.Y~>
aoDV`4'd?0_r\l;#PQZQO`!iB#_<!@!.Y~>
aoDV`4'd?0_r\l;#PQZQO`!iB#_<!@!.Y~>
aoDVa4C3Q3_r\l;#PZcTO`!iB#_<!@!.Y~>
aoDVa4C3Q3_r\l;#PZcTO`!iB#_<!@!.Y~>
aoDVa4C3Q3_r\l;#PZcTO`!iB#_<!@!.Y~>
aoDV`4'd?0_r\l;#PQZQO`!iB#_<!@!.Y~>
aoDV`4'd?0_r\l;#PQZQO`!iB#_<!@!.Y~>
aoDV`4'd?0_r\l;#PQZQO`!iB#_<!@!.Y~>
aoDV`4'd?0_r\l;#PQZQOD[`A#_<!@!.Y~>
aoDV`4'd?0_r\l;#PQZQOD[`A#_<!@!.Y~>
aoDV`4'd?0_r\l;#PQZQOD[`A#_<!@!.Y~>
aoDV`4'd?0_r\l;#PQ]ROD[`A#_<!@!.Y~>
aoDV`4'd?0_r\l;#PQ]ROD[`A#_<!@!.Y~>
aoDV`4'd?0_r\l;#PQ]ROD[`A#_<!@!.Y~>
aoDV`4'd?0_r\l;%enP^P]K_W&-rID"9S]+JH53?J,~>
aoDV`4'd?0_r\l;%enP^P]K_W&-rID"9S]+JH53?J,~>
aoDV`4'd?0_r\l;%enP^P]K_W&-rID"9S]+JH53?J,~>
aoDV`4'd?0_r\l;%f"enUP<MY0d\%_'bC]TJH53?J,~>
aoDV`4'd?0_r\l;%f"enUP<MY0d\%_'bC]TJH53?J,~>
aoDV`4'd?0_r\l;%f"enUP<MY0d\%_'bC]TJH53?J,~>
aoDV`4'd?0_r\l;%f,)*Z'p8Z;FNZ$-6*X(JH53?J,~>
aoDV`4'd?0_r\l;%f,)*Z'p8Z;FNZ$-6*X(JH53?J,~>
aoDV`4'd?0_r\l;%f,)*Z'p8Z;FNZ$-6*X(JH53?J,~>
aoDV`4'd?0_r\l;%f5A;^oa&[F(83>2^fRPJH53?J,~>
aoDV`4'd?0_r\l;%f5A;^oa&[F(83>2^fRPJH53?J,~>
aoDV`4'd?0_r\l;%f5A;^oa&[F(83>2^fRPJH53?J,~>
aoDV`4'd?0_r\l;%f>YMcbQi]P_*gY82VS$JH53?J,~>
aoDV`4'd?0_r\l;%f>YMcbQi]P_*gY82VS$JH53?J,~>
aoDV`4'd?0_r\l;%f>YMcbQi]P_*gY82VS$JH53?J,~>
aoDV`4'd?0_r\l;%fGn]hUKZ^[@rFs=[=MMJH53?J,~>
aoDV`4'd?0_r\l;%fGn]hUKZ^[@rFs=[=MMJH53?J,~>
aoDV`4'd?0_r\l;%fGn]hUKZ^[@rFs=[=MMJH53?J,~>
aoDV`4'd?0_r\l;%fZ7omH<H`f"[u8C/-N!JH53?J,~>
aoDV`4'd?0_r\l;%fZ7omH<H`f"[u8C/-N!JH53?J,~>
aoDV`4'd?0_r\l;%fZ7omH<H`f"[u8C/-N!JH53?J,~>
aoDV`4'd?0_r\i:%K?;&qYBp\hS#G+=umOP!:^&>~>
aoDV`4'd?0_r\i:%K?;&qYBp\hS#G+=umOP!:^&>~>
aoDV`4'd?0_r\i:%K?;&qYBp\hS#G+=umOP!:^&>~>
aoDnf2H4a[Yg2CqmI9cBqu4S7#3EarIpG,RJH53?J,~>
aoDnf2H4a[Yg2CqmI9cBqu4S7#3EarIpG,RJH53?J,~>
aoDnf2H4a[Yg2CqmI9cBqu4S7#3EarIpG,RJH53?J,~>
aoDnc/kBH!QE\?Qe_T?Sp&2l0#3EarIpG,RJH53?J,~>
aoDnc/kBH!QE\?Qe_T?Sp&2l0#3EarIpG,RJH53?J,~>
aoDnc/kBH!QE\?Qe_T?Sp&2l0#3EarIpG,RJH53?J,~>
aoDn_-9G(:I$(50]unpdn,10)#3EarIpG,RJH53?J,~>
aoDn_-9G(:I$(50]unpdn,10)#3EarIpG,RJH53?J,~>
aoDn_-9G(:I$(50]unpdn,10)#3EarIpG,RJH53?J,~>
aoDn\*\TcU@WR3fVROY"lMJR##3EarJ6k>VJH53?J,~>
aoDn\*\TcU@WR3fVROY"lMJR##3EarJ6k>VJH53?J,~>
aoDn\*\TcU@WR3fVROY"lMJR##3EarJ6k>VJH53?J,~>
aoDnX(*YCn85s)DNha/2jSHjq#3EarIpG,RJH53?J,~>
aoDnX(*YCn85s)DNha/2jSHjq#3EarIpG,RJH53?J,~>
aoDnX(*YCn85s)DNha/2jSHjq#3EarIpG,RJH53?J,~>
aoDnU%Mg*4/iH%$G*&`BhY>(i#3EarIpG,RJH53?J,~>
aoDnU%Mg*4/iH%$G*&`BhY>(i#3EarIpG,RJH53?J,~>
aoDnU%Mg*4/iH%$G*&`BhY>(i#3EarIpG,RJH53?J,~>
aoDnR"pk_M'GhoX?@A?Tg%WJc#3EarIpG,RJH53?J,~>
aoDnR"pk_M'GhoX?@A?Tg%WJc#3EarIpG,RJH53?J,~>
aoDnR"pk_M'GhoX?@A?Tg%WJc#3EarIpG,RJH53?J,~>
_Z0oI.SO`BZIJTers%T&Tmp?0)1_eX!.Y~>
_Z0oI.SO`BZIJTers%T&Tmp?0)1_eX!.Y~>
_Z0oI.SO`BZIJTers%T&Tmp?0)1_eX!.Y~>
_Z0oI.SO`AZIJTers%T&Tmp?0)1_eX!.Y~>
_Z0oI.SO`AZIJTers%T&Tmp?0)1_eX!.Y~>
_Z0oI.SO`AZIJTers%T&Tmp?0)1_eX!.Y~>
_Z0oI.SO`AZde]frs%T&Tmp?0)1_eX!.Y~>
_Z0oI.SO`AZde]frs%T&Tmp?0)1_eX!.Y~>
_Z0oI.SO`AZde]frs%T&Tmp?0)1_eX!.Y~>
_Z0oI.SO`AZIJWfrs%T&Tmp?0)1_eX!.Y~>
_Z0oI.SO`AZIJWfrs%T&Tmp?0)1_eX!.Y~>
_Z0oI.SO`AZIJWfrs%T&Tmp?0)1_eX!.Y~>
_Z0oI.SO`AZIJWfrs%T&Tmp?0)1_eX!.Y~>
_Z0oI.SO`AZIJWfrs%T&Tmp?0)1_eX!.Y~>
_Z0oI.SO`AZIJWfrs%T&Tmp?0)1_eX!.Y~>
_Z0oI.SO`AZde]frs%T&Tmp?0)1_eX!.Y~>
_Z0oI.SO`AZde]frs%T&Tmp?0)1_eX!.Y~>
_Z0oI.SO`AZde]frs%T&Tmp?0)1_eX!.Y~>
_Z0oI.SO`AZIJTers%T&Tmp?0)1_eX!.Y~>
_Z0oI.SO`AZIJTers%T&Tmp?0)1_eX!.Y~>
_Z0oI.SO`AZIJTers%T&Tmp?0)1_eX!.Y~>
_Z0oI.SO`BZIJTers%T&Tmp?0)1_eX!.Y~>
_Z0oI.SO`BZIJTers%T&Tmp?0)1_eX!.Y~>
_Z0oI.SO`BZIJTers%T&Tmp?0)1_eX!.Y~>
_Z0oI.SO`AZISZfrsn87X,Lpl0GtT<%LWOF!J(7H!.Y~>
_Z0oI.SO`AZISZfrsn87X,Lpl0GtT<%LWOF!J(7H!.Y~>
_Z0oI.SO`AZISZfrsn87X,Lpl0GtT<%LWOF!J(7H!.Y~>
_Z0oI.SO`AZIJTersnAB\"/.c:HC6\+rV($!eC@I!.Y~>
_Z0oI.SO`AZIJTersnAB\"/.c:HC6\+rV($!eC@I!.Y~>
_Z0oI.SO`AZIJTersnAB\"/.c:HC6\+rV($!eC@I!.Y~>
_Z0oI.SO`BZIJTersnMN`3,M\DH]e$2(0FU"+^IJ!.Y~>
_Z0oI.SO`BZIJTersnMN`3,M\DH]e$2(0FU"+^IJ!.Y~>
_Z0oI.SO`BZIJTersnMN`3,M\DH]e$2(0FU"+^IJ!.Y~>
_Z0oI.SO`BZdnfhrsnVYd(c`SN-f;B82hk1"G$RK!.Y~>
_Z0oI.SO`BZdnfhrsnVYd(c`SN-f;B82hk1"G$RK!.Y~>
_Z0oI.SO`BZdnfhrsnVYd(c`SN-f;B82hk1"G$RK!.Y~>
_Z0oI.SO`BZIJTersn_dgsF!KX.4rb>XgCd"b?[L!.Y~>
_Z0oI.SO`BZIJTersn_dgsF!KX.4rb>XgCd"b?[L!.Y~>
_Z0oI.SO`BZIJTersn_dgsF!KX.4rb>XgCd"b?[L!.Y~>
_Z0oI.SO`AZIJTersnkpl/C=Cah=I+DcJkB#(ZdM!.Y~>
_Z0oI.SO`AZIJTersnkpl/C=Cah=I+DcJkB#(ZdM!.Y~>
_Z0oI.SO`AZIJTersnkpl/C=Cah=I+DcJkB#(ZdM!.Y~>
_Z0oI.SO`AZISZfrsnu&p%%S;kha(JJn%4r#_<!O!.Y~>
_Z0oI.SO`AZISZfrsnu&p%%S;kha(JJn%4r#_<!O!.Y~>
_Z0oI.SO`AZISZfrsnu&p%%S;kha(JJn%4r#_<!O!.Y~>
_Z0oI.SO`BZIJT^rs/8IZB9#u.L:S*q#Gp~>
_Z0oI.SO`BZIJT^rs/8IZB9#u.L:S*q#Gp~>
_Z0oI.SO`BZIJT^rs/8IZB9#u.L:S*q#Gp~>
_Z0oI.SO`AZIJT^rs/8IZB/rt.L:S*q#Gp~>
_Z0oI.SO`AZIJT^rs/8IZB/rt.L:S*q#Gp~>
_Z0oI.SO`AZIJT^rs/8IZB/rt.L:S*q#Gp~>
_Z0oI.SO`AZde]_rs/8IZ]K&u.L:S*q#Gp~>
_Z0oI.SO`AZde]_rs/8IZ]K&u.L:S*q#Gp~>
_Z0oI.SO`AZde]_rs/8IZ]K&u.L:S*q#Gp~>
_Z0oI.SO`AZIJW_rs/;JZB/rt.L:S*q#Gp~>
_Z0oI.SO`AZIJW_rs/;JZB/rt.L:S*q#Gp~>
_Z0oI.SO`AZIJW_rs/;JZB/rt.L:S*q#Gp~>
_Z0oI.SO`AZIJW_rs/;JZB/rt.L:S*q#Gp~>
_Z0oI.SO`AZIJW_rs/;JZB/rt.L:S*q#Gp~>
_Z0oI.SO`AZIJW_rs/;JZB/rt.L:S*q#Gp~>
_Z0oI.SO`AZde]_rs/8IZ]K&u.L:S*q#Gp~>
_Z0oI.SO`AZde]_rs/8IZ]K&u.L:S*q#Gp~>
_Z0oI.SO`AZde]_rs/8IZ]K&u.L:S*q#Gp~>
_Z0oI.SO`AZIJT^rs/8IZB/rt.L:S*q#Gp~>
_Z0oI.SO`AZIJT^rs/8IZB/rt.L:S*q#Gp~>
_Z0oI.SO`AZIJT^rs/8IZB/rt.L:S*q#Gp~>
_Z0oI.SO`BZIJT^rs/8IZB9#u.L:S*q#Gp~>
_Z0oI.SO`BZIJT^rs/8IZB9#u.L:S*q#Gp~>
_Z0oI.SO`BZIJT^rs/8IZB9#u.L:S*q#Gp~>
_Z0oI.SO`AZISZ_rs/8JZB/rt.L:S*q#Gp~>
_Z0oI.SO`AZISZ_rs/8JZB/rt.L:S*q#Gp~>
_Z0oI.SO`AZISZ_rs/8JZB/rt.L:S*q#Gp~>
_Z0oI.SO`AZIJT^rs/8IZB/rt.L:S*q#Gp~>
_Z0oI.SO`AZIJT^rs/8IZB/rt.L:S*q#Gp~>
_Z0oI.SO`AZIJT^rs/8IZB/rt.L:S*q#Gp~>
_Z0oI.SO`BZIJT^rs/8IZB9#u.L:S*q#Gp~>
_Z0oI.SO`BZIJT^rs/8IZB9#u.L:S*q#Gp~>
_Z0oI.SO`BZIJT^rs/8IZB9#u.L:S*q#Gp~>
_Z0oI.SO`BZdnfars/;KZ]T-!.L:S*q#Gp~>
_Z0oI.SO`BZdnfars/;KZ]T-!.L:S*q#Gp~>
_Z0oI.SO`BZdnfars/;KZ]T-!.L:S*q#Gp~>
_Z0oI.SO`BZIJT^rs/8IZB9#u.L:S*q#Gp~>
_Z0oI.SO`BZIJT^rs/8IZB9#u.L:S*q#Gp~>
_Z0oI.SO`BZIJT^rs/8IZB9#u.L:S*q#Gp~>
_Z0oI.SO`AZIJT^rs/8IZB/rt.L:S*q#Gp~>
_Z0oI.SO`AZIJT^rs/8IZB/rt.L:S*q#Gp~>
_Z0oI.SO`AZIJT^rs/8IZB/rt.L:S*q#Gp~>
_Z0oI.SO`AZISZ_rs/8JZB/rt.L:S*q#Gp~>
_Z0oI.SO`AZISZ_rs/8JZB/rt.L:S*q#Gp~>
_Z0oI.SO`AZISZ_rs/8JZB/rt.L:S*q#Gp~>
_Z1/P.8"B7Xj-;.q"jmcrVje9%enP^P]K_W&-rID"9S]+JH,ZMJ,~>
_Z1/P.8"B7Xj-;.q"jmcrVje9%enP^P]K_W&-rID"9S]+JH,ZMJ,~>
_Z1/P.8"B7Xj-;.q"jmcrVje9%enP^P]K_W&-rID"9S]+JH,ZMJ,~>
_Z1/O,=#LYQ*JTehW3tjp%u`.%f"enUP<MY0d\%_'bC]TJH,ZMJ,~>
_Z1/O,=#LYQ*JTehW3tjp%u`.%f"enUP<MY0d\%_'bC]TJH,ZMJ,~>
_Z1/O,=#LYQ*JTehW3tjp%u`.%f"enUP<MY0d\%_'bC]TJH,ZMJ,~>
_Z1/N*]?`(I?gqG`6[,smJ"U"%f,)*Z'p8Z;FNZ$-6*X(JH,ZMJ,~>
_Z1/N*]?`(I?gqG`6[,smJ"U"%f,)*Z'p8Z;FNZ$-6*X(JH,ZMJ,~>
_Z1/N*]?`(I?gqG`6[,smJ"U"%f,)*Z'p8Z;FNZ$-6*X(JH,ZMJ,~>
_Z1/M(b7gKAU'0(Wk$4%jn-Ol%f5A;^oa&[F(83>2^fRPJH,ZMJ,~>
_Z1/M(b7gKAU'0(Wk$4%jn-Ol%f5A;^oa&[F(83>2^fRPJH,ZMJ,~>
_Z1/M(b7gKAU'0(Wk$4%jn-Ol%f5A;^oa&[F(83>2^fRPJH,ZMJ,~>
_Z1/L&g8qn9jDI^OJB;-h=/D`%f>YMcbQi]P_*gY82VS$JH,ZMJ,~>
_Z1/L&g8qn9jDI^OJB;-h=/D`%f>YMcbQi]P_*gY82VS$JH,ZMJ,~>
_Z1/L&g8qn9jDI^OJB;-h=/D`%f>YMcbQi]P_*gY82VS$JH,ZMJ,~>
_Z1/K%2U0<2F'l@G)iH5ea:?U%fGn]hUKZ^[@rFs=[=MMJH,ZMJ,~>
_Z1/K%2U0<2F'l@G)iH5ea:?U%fGn]hUKZ^[@rFs=[=MMJH,ZMJ,~>
_Z1/K%2U0<2F'l@G)iH5ea:?U%fGn]hUKZ^[@rFs=[=MMJH,ZMJ,~>
_Z1/I#7V:_*[<+!>^2O=c0E:J%fZ7omH<H`f"[u8C/-N!JH,ZMJ,~>
_Z1/I#7V:_*[<+!>^2O=c0E:J%fZ7omH<H`f"[u8C/-N!JH,ZMJ,~>
_Z1/I#7V:_*[<+!>^2O=c0E:J%fZ7omH<H`f"[u8C/-N!JH,ZMJ,~>
_>k#G!sAc3#7)J>@t^Ysk/@9/rquZiq=s^@]psFQ3Z3JK!!%N~>
_>k#G!sAc3#7)J>@t^Ysk/@9/rquZiq=s^@]psFQ3Z3JK!!%N~>
_>k#G!sAc3#7)J>@t^Ysk/@9/rquZiq=s^@]psFQ3Z3JK!!%N~>
])W$Q4'd?0_r\T3#3EarIpG,RJH,ZMJ,~>
])W$Q4'd?0_r\T3#3EarIpG,RJH,ZMJ,~>
])W$Q4'd?0_r\T3#3EarIpG,RJH,ZMJ,~>
ZiC=:.SO`AZIJT^rs/8IZB/rt.L:h1J,~>
ZiC=:.SO`AZIJT^rs/8IZB/rt.L:h1J,~>
ZiC=:.SO`AZIJT^rs/8IZB/rt.L:h1J,~>
ZiC=:.SO`BZIJT^rs/8IZB9#u.L:h1J,~>
ZiC=:.SO`BZIJT^rs/8IZB9#u.L:h1J,~>
ZiC=:.SO`BZIJT^rs/8IZB9#u.L:h1J,~>
ZiC=:.SO`BZdnfars/;KZ]T-!.L:h1J,~>
ZiC=:.SO`BZdnfars/;KZ]T-!.L:h1J,~>
ZiC=:.SO`BZdnfars/;KZ]T-!.L:h1J,~>
ZiC=:.SO`BZIJT^rs/8IZB9#u.L:h1J,~>
ZiC=:.SO`BZIJT^rs/8IZB9#u.L:h1J,~>
ZiC=:.SO`BZIJT^rs/8IZB9#u.L:h1J,~>
ZiC=:.SO`AZIJT^rs/8IZB/rt.L:h1J,~>
ZiC=:.SO`AZIJT^rs/8IZB/rt.L:h1J,~>
ZiC=:.SO`AZIJT^rs/8IZB/rt.L:h1J,~>
ZiC=:.SO`AZISZ_rs/8JZB/rt.L:h1J,~>
ZiC=:.SO`AZISZ_rs/8JZB/rt.L:h1J,~>
ZiC=:.SO`AZISZ_rs/8JZB/rt.L:h1J,~>
ZiC=:.SO`BZIJT^rs/8IZB9#u.L:h1J,~>
ZiC=:.SO`BZIJT^rs/8IZB9#u.L:h1J,~>
ZiC=:.SO`BZIJT^rs/8IZB9#u.L:h1J,~>
ZiC=:.SO`AZIJT^rs/8IZB/rt.L:h1J,~>
ZiC=:.SO`AZIJT^rs/8IZB/rt.L:h1J,~>
ZiC=:.SO`AZIJT^rs/8IZB/rt.L:h1J,~>
ZiC=:.SO`AZde]_rs/8IZ]K&u.L:h1J,~>
ZiC=:.SO`AZde]_rs/8IZ]K&u.L:h1J,~>
ZiC=:.SO`AZde]_rs/8IZ]K&u.L:h1J,~>
ZiC=:.SO`AZIJW_rs/;JZB/rt.L:h1J,~>
ZiC=:.SO`AZIJW_rs/;JZB/rt.L:h1J,~>
ZiC=:.SO`AZIJW_rs/;JZB/rt.L:h1J,~>
ZiC=:.SO`AZIJW_rs/;JZB/rt.L:h1J,~>
ZiC=:.SO`AZIJW_rs/;JZB/rt.L:h1J,~>
ZiC=:.SO`AZIJW_rs/;JZB/rt.L:h1J,~>
ZiC=:.SO`AZde]_rs/8IZ]K&u.L:h1J,~>
ZiC=:.SO`AZde]_rs/8IZ]K&u.L:h1J,~>
ZiC=:.SO`AZde]_rs/8IZ]K&u.L:h1J,~>
ZiC=:.SO`AZIJT^rs/8IZB/rt.L:h1J,~>
ZiC=:.SO`AZIJT^rs/8IZB/rt.L:h1J,~>
ZiC=:.SO`AZIJT^rs/8IZB/rt.L:h1J,~>
ZiC=:.SO`BZIJT^rs/8IZB9#u.L:h1J,~>
ZiC=:.SO`BZIJT^rs/8IZB9#u.L:h1J,~>
ZiC=:.SO`BZIJT^rs/8IZB9#u.L:h1J,~>
ZiCRA-:MErTtfIJlgOE;q>A53%enYfS:+^/+Vth(%1*4@NrX\~>
ZiCRA-:MErTtfIJlgOE;q>A53%enYfS:+^/+Vth(%1*4@NrX\~>
ZiCRA-:MErTtfIJlgOE;q>A53%enYfS:+^/+Vth(%1*4@NrX\~>
ZiCR?+Zi\BM5.c+dFmLCnbL0(%f"o!WfVC/68gGC*Yo4iNrX\~>
ZiCR?+Zi\BM5.c+dFmLCnbL0(%f"o!WfVC/68gGC*Yo4iNrX\~>
ZiCR?+Zi\BM5.c+dFmLCnbL0(%f"o!WfVC/68gGC*Yo4iNrX\~>
ZiCR>)_a`dEJL'b\&?YKl1N$q%f584\YG10@oPu\0-V/<NrX\~>
ZiCR>)_a`dEJL'b\&?YKl1N$q%f584\YG10@oPu\0-V/<NrX\~>
ZiCR>)_a`dEJL'b\&?YKl1N$q%f584\YG10@oPu\0-V/<NrX\~>
ZiCR='dbk1=_`;BSZ]`SiUXtf%f>PEaLA%3KQCU"5VF/fNrX\~>
ZiCR='dbk1=_`;BSZ]`SiUXtf%f>PEaLA%3KQCU"5VF/fNrX\~>
ZiCR='dbk1=_`;BSZ]`SiUXtf%f>PEaLA%3KQCU"5VF/fNrX\~>
ZiCR<&0*)U5u(U$K:/m\g$co[%fGeUf#k\2Ulg%:;*-*9NrX\~>
ZiCR<&0*)U5u(U$K:/m\g$co[%fGeUf#k\2Ulg%:;*-*9NrX\~>
ZiCR<&0*)U5u(U$K:/m\g$co[%fGeUf#k\2Ulg%:;*-*9NrX\~>
ZiCR;$5+7$.Pa%\BnMtcdHedO%fQ(fjk\J3`NYYU@Rr*cNrX\~>
ZiCR;$5+7$.Pa%\BnMtcdHedO%fQ(fjk\J3`NYYU@Rr*cNrX\~>
ZiCR;$5+7$.Pa%\BnMtcdHedO%fQ(fjk\J3`NYYU@Rr*cNrX\~>
ZiCR:":,AF&eu9<:Mu,lalp_D%fZA"o^M84k0C2nF&Y%6NrX\~>
ZiCR:":,AF&eu9<:Mu,lalp_D%fZA"o^M84k0C2nF&Y%6NrX\~>
ZiCR:":,AF&eu9<:Mu,lalp_D%fZA"o^M84k0C2nF&Y%6NrX\~>
X8iGB4'd?0_r\T3#3EarIpG,RNrX\~>
X8iGB4'd?0_r\T3#3EarIpG,RNrX\~>
X8iGB4'd?0_r\T3#3EarIpG,RNrX\~>
X8iGB4'd?0_r\T3#3EarIpG,RNrX\~>
X8iGB4'd?0_r\T3#3EarIpG,RNrX\~>
X8iGB4'd?0_r\T3#3EarIpG,RNrX\~>
X8iGB4'd?0_r\T3#3EarIpG,RNrX\~>
X8iGB4'd?0_r\T3#3EarIpG,RNrX\~>
X8iGB4'd?0_r\T3#3EarIpG,RNrX\~>
X8iGB4'd?0_r\T3#3EarIpG,RNrX\~>
X8iGB4'd?0_r\T3#3EarIpG,RNrX\~>
X8iGB4'd?0_r\T3#3EarIpG,RNrX\~>
X8iGB4'd?0_r\T3#3EarIpG,RNrX\~>
X8iGB4'd?0_r\T3#3EarIpG,RNrX\~>
X8iGB4'd?0_r\T3#3EarIpG,RNrX\~>
X8iGB4'd?0_r\T3#3EarIpG,RNrX\~>
X8iGB4'd?0_r\T3#3EarIpG,RNrX\~>
X8iGB4'd?0_r\T3#3EarIpG,RNrX\~>
X8iGB4'd?0_r\T3#3EarIpG,RNrX\~>
X8iGB4'd?0_r\T3#3EarIpG,RNrX\~>
X8iGB4'd?0_r\T3#3EarIpG,RNrX\~>
X8iGB4'd?0_r\T3#3EarIpG,RNrX\~>
X8iGB4'd?0_r\T3#3EarIpG,RNrX\~>
X8iGB4'd?0_r\T3#3EarIpG,RNrX\~>
X8iGB4'd?0_r\T3%d;$8N,DEF)&3bo$O?k9QN2O~>
X8iGB4'd?0_r\T3%d;$8N,DEF)&3bo$O?k9QN2O~>
X8iGB4'd?0_r\T3%d;$8N,DEF)&3bo$O?k9QN2O~>
X8iGB4'd?0_r\T3%dVNOSV(WP3\i0/)A3AYQN2O~>
X8iGB4'd?0_r\T3%dVNOSV(WP3\i0/)A3AYQN2O~>
X8iGB4'd?0_r\T3%dVNOSV(WP3\i0/)A3AYQN2O~>
X8iGB4'd?0_r\T3%e&)hY*jo[>#%@@-l`d#QN2O~>
X8iGB4'd?0_r\T3%e&)hY*jo[>#%@@-l`d#QN2O~>
X8iGB4'd?0_r\T3%e&)hY*jo[>#%@@-l`d#QN2O~>
X8iGC4C3Q3_r\T3%eAT*^TO,dHYQ\S2^T7BQN2O~>
X8iGC4C3Q3_r\T3%eAT*^TO,dHYQ\S2^T7BQN2O~>
X8iGC4C3Q3_r\T3%eAT*^TO,dHYQ\S2^T7BQN2O~>
X8iGB4'd?0_r\T3%e])Ad)<DoS;2)h7PGbbQN2O~>
X8iGB4'd?0_r\T3%e])Ad)<DoS;2)h7PGbbQN2O~>
X8iGB4'd?0_r\T3%e])Ad)<DoS;2)h7PGbbQN2O~>
X8iGB4'd?0_r\T3%f,YZiRuW#]q^F&<BD?.QN2O~>
X8iGB4'd?0_r\T3%f,YZiRuW#]q^F&<BD?.QN2O~>
X8iGB4'd?0_r\T3%f,YZiRuW#]q^F&<BD?.QN2O~>
X8iGB4'd?0_r\T3%fH.qo'bo.hS5b9@mq^MQN2O~>
X8iGB4'd?0_r\T3%fH.qo'bo.hS5b9@mq^MQN2O~>
X8iGB4'd?0_r\T3%fH.qo'bo.hS5b9@mq^MQN2O~>
X8i\I3a-m#^#&MYq>1!drk8=:p=-C1DG2McQN2O~>
X8i\I3a-m#^#&MYq>1!drk8=:p=-C1DG2McQN2O~>
X8i\I3a-m#^#&MYq>1!drk8=:p=-C1DG2McQN2O~>
X8i_F1/;S>UVGC8iTKV!q#8#-#PQZQOD[`A#aYOA~>
X8i_F1/;S>UVGC8iTKV!q#8#-#PQZQOD[`A#aYOA~>
X8i_F1/;S>UVGC8iTKV!q#8#-#PQZQOD[`A#aYOA~>
X8i_C.R@3WM4q>lajf22o)-6%#PQZROD[`A#aYOA~>
X8i_C.R@3WM4q>lajf22o)-6%#PQZROD[`A#aYOA~>
X8i_C.R@3WM4q>lajf22o)-6%#PQZROD[`A#aYOA~>
X8i_?+uMnrDh=4KZG=fCmJFWt#PZ`ROD[`A#aYOA~>
X8i_?+uMnrDh=4KZG=fCmJFWt#PZ`ROD[`A#aYOA~>
X8i_?+uMnrDh=4KZG=fCmJFWt#PZ`ROD[`A#aYOA~>
X8i_<)CRO6<F^*)R]XBSkPDpm#PZ`ROD[`A#aYOA~>
X8i_<)CRO6<F^*)R]XBSkPDpm#PZ`ROD[`A#aYOA~>
X8i_<)CRO6<F^*)R]XBSkPDpm#PZ`ROD[`A#aYOA~>
X8i_9&f`5P4%3%^JsrsdiVC4f#PQZROD[`A#aYOA~>
X8i_9&f`5P4%3%^JsrsdiVC4f#PQZROD[`A#aYOA~>
X8i_9&f`5P4%3%^JsrsdiVC4f#PQZROD[`A#aYOA~>
X8i_5$4mpk+XSp=C5/Lug\AM_#PQZQOD[`A#aYOA~>
X8i_5$4mpk+XSp=C5/Lug\AM_#PQZQOD[`A#aYOA~>
X8i_5$4mpk+XSp=C5/Lug\AM_#PQZQOD[`A#aYOA~>
X8i_2!WrQ/"pbbp;KJ)1f(ZoY#PQZQO`!iB#aYOA~>
X8i_2!WrQ/"pbbp;KJ)1f(ZoY#PQZQO`!iB#aYOA~>
X8i_2!WrQ/"pbbp;KJ)1f(ZoY#PQZQO`!iB#aYOA~>
V#U`+.SO`AZISZ_rsneV\t"1T5TppX&.JpM".fLC~>
V#U`+.SO`AZISZ_rsneV\t"1T5TppX&.JpM".fLC~>
V#U`+.SO`AZISZ_rsneV\t"1T5TppX&.JpM".fLC~>
V#U`+.SO`AZIJT^rsnh\`2\oB>XC>$-6<p4#+bgF~>
V#U`+.SO`AZIJT^rsnh\`2\oB>XC>$-6<p4#+bgF~>
V#U`+.SO`AZIJT^rsnh\`2\oB>XC>$-6<p4#+bgF~>
V#U`+.SO`BZIJT^rsnndcafg2G[j]D4"hcn$(_-I~>
V#U`+.SO`BZIJT^rsnndcafg2G[j]D4"hcn$(_-I~>
V#U`+.SO`BZIJT^rsnndcafg2G[j]D4"hcn$(_-I~>
V#U`+.SO`BZdnfarsnqkfuUY"Q%X3f;*ZcU%A!QM~>
V#U`+.SO`BZdnfarsnqkfuUY"Q%X3f;*ZcU%A!QM~>
V#U`+.SO`BZdnfarsnqkfuUY"Q%X3f;*ZcU%A!QM~>
V#U`+.SO`BZIJT^rsntqj4;AdZ)!M0Al1W:&=rlP~>
V#U`+.SO`BZIJT^rsntqj4;AdZ)!M0Al1W:&=rlP~>
V#U`+.SO`BZIJT^rsntqj4;AdZ)!M0Al1W:&=rlP~>
V#U`+.SO`AZIJT^rso##mH*0Sc,HoQHt#W!'V5;T~>
V#U`+.SO`AZIJT^rso##mH*0Sc,HoQHt#W!'V5;T~>
V#U`+.SO`AZIJT^rso##mH*0Sc,HoQHt#W!'V5;T~>
V#U`+.SO`AZISZ_rso&*p[mtBl/p9qO`OJ[(S1VW~>
V#U`+.SO`AZISZ_rso&*p[mtBl/p9qO`OJ[(S1VW~>
V#U`+.SO`AZISZ_rso&*p[mtBl/p9qO`OJ[(S1VW~>
V#U`+.SO`BZIJTVrse,0UkE5E+UA;W"U"o.V#Z#~>
V#U`+.SO`BZIJTVrse,0UkE5E+UA;W"U"o.V#Z#~>
V#U`+.SO`BZIJTVrse,0UkE5E+UA;W"U"o.V#Z#~>
V#U`+.SO`AZIJTVrsn>=Z'BQ=5Udp!(_R8_!N#jI~>
V#U`+.SO`AZIJTVrsn>=Z'BQ=5Udp!(_R8_!N#jI~>
V#U`+.SO`AZIJTVrsn>=Z'BQ=5Udp!(_R8_!N#jI~>
V#U`+.SO`AZde]WrsnGH]r$g5?:mI@.j5]<"/Z'K~>
V#U`+.SO`AZde]WrsnGH]r$g5?:mI@.j5]<"/Z'K~>
V#U`+.SO`AZde]WrsnGH]r$g5?:mI@.j5]<"/Z'K~>
V#U`+.SO`AZIJWWrsnPSb.".-I;<(^5;45n"Ju0L~>
V#U`+.SO`AZIJWWrsnPSb.".-I;<(^5;45n"Ju0L~>
V#U`+.SO`AZIJWWrsnPSb.".-I;<(^5;45n"Ju0L~>
V#U`+.SO`AZIJWWrsn\_f#YD%S;_](;ElZK"f;9M~>
V#U`+.SO`AZIJWWrsn\_f#YD%S;_](;ElZK"f;9M~>
V#U`+.SO`AZIJWWrsn\_f#YD%S;_](;ElZK"f;9M~>
V#U`+.SO`AZde]Wrsnejj4Vbs\uh6GAPG'(#,VBN~>
V#U`+.SO`AZde]Wrsnejj4Vbs\uh6GAPG'(#,VBN~>
V#U`+.SO`AZde]Wrsnejj4Vbs\uh6GAPG'(#,VBN~>
V#U`+.SO`AZIJTVrsnr!n*8ujg!-deG[*KY#GqKO~>
V#U`+.SO`AZIJTVrsnr!n*8ujg!-deG[*KY#GqKO~>
V#U`+.SO`AZIJTVrsnr!n*8ujg!-deG[*KY#GqKO~>
V#U`+.SO`BZIJTVrso&,r;6?cp[6;.N,)$7#c7TP~>
V#U`+.SO`BZIJTVrso&,r;6?cp[6;.N,)$7#c7TP~>
V#U`+.SO`BZIJTVrso&,r;6?cp[6;.N,)$7#c7TP~>
V#U`+.SO`AZISZPrs/;O\t"1T5U#G3#8n6h%LWOF!Q4tg~>
V#U`+.SO`AZISZPrs/;O\t"1T5U#G3#8n6h%LWOF!Q4tg~>
V#U`+.SO`AZISZPrs/;O\t"1T5U#G3#8n6h%LWOF!Q4tg~>
V#U`+.SO`AZIJTOrs/>U`2\oB>XIa=#<FUi+rV($!lP(h~>
V#U`+.SO`AZIJTOrs/>U`2\oB>XIa=#<FUi+rV($!lP(h~>
V#U`+.SO`AZIJTOrs/>U`2\oB>XIa=#<FUi+rV($!lP(h~>
V#U`+.SO`BZIJTOrs/D]cafg2G[p&G#?jkg2(0FU"2k1i~>
V#U`+.SO`BZIJTOrs/D]cafg2G[p&G#?jkg2(0FU"2k1i~>
V#U`+.SO`BZIJTOrs/D]cafg2G[p&G#?jkg2(0FU"2k1i~>
V#U`+.SO`BZdnfRrs/GdfuUY"Q%\IR#CC2g82hk1"N1:j~>
V#U`+.SO`BZdnfRrs/GdfuUY"Q%\IR#CC2g82hk1"N1:j~>
V#U`+.SO`BZdnfRrs/GdfuUY"Q%\IR#CC2g82hk1"N1:j~>
V#U`+.SO`BZIJTOrs/Jjj4;AdZ)$]Z#FpQh>XgCd"iLCk~>
V#U`+.SO`BZIJTOrs/Jjj4;AdZ)$]Z#FpQh>XgCd"iLCk~>
V#U`+.SO`BZIJTOrs/Jjj4;AdZ)$]Z#FpQh>XgCd"iLCk~>
V#U`+.SO`AZIJTOrs/MqmH*0Sc,K"d#JHmhDcJkB#/gLl~>
V#U`+.SO`AZIJTOrs/MqmH*0Sc,K"d#JHmhDcJkB#/gLl~>
V#U`+.SO`AZIJTOrs/MqmH*0Sc,K"d#JHmhDcJkB#/gLl~>
V#U`+.SO`AZISZPrs/Q#p[mtBl/q<n#N!4hJn%4r#fH^n~>
V#U`+.SO`AZISZPrs/Q#p[mtBl/q<n#N!4hJn%4r#fH^n~>
V#U`+.SO`AZISZPrs/Q#p[mtBl/q<n#N!4hJn%4r#fH^n~>
V#U`+.SO`BZIJT1rs/;L[?P`10bEj\"U5,5!s/MW!.Y~>
V#U`+.SO`BZIJT1rs/;L[?P`10bEj\"U5,5!s/MW!.Y~>
V#U`+.SO`BZIJT1rs/;L[?P`10bEj\"U5,5!s/MW!.Y~>
V#U`+.SO`AZIJT1rs/>R^S?Nu:,2;h"stK4'bC]Tg&QX~>
V#U`+.SO`AZIJT1rs/>R^S?Nu:,2;h"stK4'bC]Tg&QX~>
V#U`+.SO`AZIJT1rs/>R^S?Nu:,2;h"stK4'bC]Tg&QX~>
V#U`+.SO`AZde]2rs/AYag%:dC/XUr#":U--6*X(g&QX~>
V#U`+.SO`AZde]2rs/AYag%:dC/XUr#":U--6*X(g&QX~>
V#U`+.SO`AZde]2rs/AYag%:dC/XUr#":U--6*X(g&QX~>
V#U`+.SO`AZIJW2rs/D`e%i)SL3)p'#%LY&2^fRPg&QX~>
V#U`+.SO`AZIJW2rs/D`e%i)SL3)p'#%LY&2^fRPg&QX~>
V#U`+.SO`AZIJW2rs/D`e%i)SL3)p'#%LY&2^fRPg&QX~>
V#U`+.SO`AZIJW2rs/GghTs!CUQk>3#(gbu82VS$g&QX~>
V#U`+.SO`AZIJW2rs/GghTs!CUQk>3#(gbu82VS$g&QX~>
V#U`+.SO`AZIJW2rs/GghTs!CUQk>3#(gbu82VS$g&QX~>
V#U`+.SO`AZde]2rs/Jmkhah2^U<X=#,-ln=[=MMg&QX~>
V#U`+.SO`AZde]2rs/Jmkhah2^U<X=#,-ln=[=MMg&QX~>
V#U`+.SO`AZde]2rs/Jmkhah2^U<X=#,-ln=[=MMg&QX~>
V#U`+.SO`AZIJT1rs/Puo'PW!gt)&H#/?pgC/-N!g&QX~>
V#U`+.SO`AZIJT1rs/Puo'PW!gt)&H#/?pgC/-N!g&QX~>
V#U`+.SO`AZIJT1rs/Puo'PW!gt)&H#/?pgC/-N!g&QX~>
V#U`+.SO`BZIJT0rrrE"qtg-`nb37E]psFQ3Z6WOJ,~>
V#U`+.SO`BZIJT0rrrE"qtg-`nb37E]psFQ3Z6WOJ,~>
V#U`+.SO`BZIJT0rrrE"qtg-`nb37E]psFQ3Z6WOJ,~>
V#U`+.SO`AZISZ"s8)a*kfKlaDGMr('bUua#Qt1f!.Y~>
V#U`+.SO`AZISZ"s8)a*kfKlaDGMr('bUua#Qt1f!.Y~>
V#U`+.SO`AZISZ"s8)a*kfKlaDGMr('bUua#Qt1f!.Y~>
V#U`+.SO`AZIJT!s8)a*ld<24K5"+B1+FId&de^"!.Y~>
V#U`+.SO`AZIJT!s8)a*ld<24K5"+B1+FId&de^"!.Y~>
V#U`+.SO`AZIJT!s8)a*ld<24K5"+B1+FId&de^"!.Y~>
V#U`+.SO`BZIJT!s8)a*n(GX^R=fB\:-g`c*"W53!.Y~>
V#U`+.SO`BZIJT!s8)a*n(GX^R=fB\:-g`c*"W53!.Y~>
V#U`+.SO`BZIJT!s8)a*n(GX^R=fB\:-g`c*"W53!.Y~>
V#U`+.SO`BZdnf$s8)a*o&7s1Y+:MuC0=(d-5?[C!.Y~>
V#U`+.SO`BZdnf$s8)a*o&7s1Y+:MuC0=(d-5?[C!.Y~>
V#U`+.SO`BZdnf$s8)a*o&7s1Y+:MuC0=(d-5?[C!.Y~>
V#U`+.SO`BZIJT!s8)a*p$(8Y`4)e;LN-Qg0H12T!.Y~>
V#U`+.SO`BZIJT!s8)a*p$(8Y`4)e;LN-Qg0H12T!.Y~>
V#U`+.SO`BZIJT!s8)a*p$(8Y`4)e;LN-Qg0H12T!.Y~>
V#U`+.SO`AZIJT!s8)a*q=3_.g!RpTUPWnh4!=gf!.Y~>
V#U`+.SO`AZIJT!s8)a*q=3_.g!RpTUPWnh4!=gf!.Y~>
V#U`+.SO`AZIJT!s8)a*q=3_.g!RpTUPWnh4!=gf!.Y~>
V#U`+.SO`AZISZ"s8)a*r;$$Vn*B2o^S-6h74&<"!.Y~>
V#U`+.SO`AZISZ"s8)a*r;$$Vn*B2o^S-6h74&<"!.Y~>
V#U`+.SO`AZISZ"s8)a*r;$$Vn*B2o^S-6h74&<"!.Y~>
V#U`+.SO`BZIJT!s7?6qp=-C1DG2MciW+K~>
V#U`+.SO`BZIJT!s7?6qp=-C1DG2MciW+K~>
V#U`+.SO`BZIJT!s7?6qp=-C1DG2MciW+K~>
V#U`+.SO`AZIJT!s7?6qp=-C0DG2MciW+K~>
V#U`+.SO`AZIJT!s7?6qp=-C0DG2MciW+K~>
V#U`+.SO`AZIJT!s7?6qp=-C0DG2MciW+K~>
V#U`+.SO`AZde]"s7?6qp=-F1DG2MciW+K~>
V#U`+.SO`AZde]"s7?6qp=-F1DG2MciW+K~>
V#U`+.SO`AZde]"s7?6qp=-F1DG2MciW+K~>
V#U`+.SO`AZIJW"s7?6qpXHL1DG2MciW+K~>
V#U`+.SO`AZIJW"s7?6qpXHL1DG2MciW+K~>
V#U`+.SO`AZIJW"s7?6qpXHL1DG2MciW+K~>
V#U`+.SO`AZIJW"s7?6qpXHL1DG2MciW+K~>
V#U`+.SO`AZIJW"s7?6qpXHL1DG2MciW+K~>
V#U`+.SO`AZIJW"s7?6qpXHL1DG2MciW+K~>
V#U`+.SO`AZde]"s7?6qp=-F1DG2MciW+K~>
V#U`+.SO`AZde]"s7?6qp=-F1DG2MciW+K~>
V#U`+.SO`AZde]"s7?6qp=-F1DG2MciW+K~>
V#U`+.SO`AZIJT!s7?6qp=-C0DG2MciW+K~>
V#U`+.SO`AZIJT!s7?6qp=-C0DG2MciW+K~>
V#U`+.SO`AZIJT!s7?6qp=-C0DG2MciW+K~>
V#U`+.SO`BZIJT!s7?6qp=-C1DG2MciW+K~>
V#U`+.SO`BZIJT!s7?6qp=-C1DG2MciW+K~>
V#U`+.SO`BZIJT!s7?6qp=-C1DG2MciW+K~>
ZiC=3":,AF&eu;\)@%EN?@A?Tg%U'toD]'heZt9S9I^>-!.Y~>
ZiC=3":,AF&eu;\)@%EN?@A?Tg%U'toD]'heZt9S9I^>-!.Y~>
ZiC=3":,AF&eu;\)@%EN?@A?Tg%U'toD]'heZt9S9I^>-!.Y~>
ZiC=4$5+7$.Pa']49n2XG*&`BhY;[%oD]'he?Y0R9I^>-!.Y~>
ZiC=4$5+7$.Pa']49n2XG*&`BhY;[%oD]'he?Y0R9I^>-!.Y~>
ZiC=4$5+7$.Pa']49n2XG*&`BhY;[%oD]'he?Y0R9I^>-!.Y~>
ZiC=5&0*)U5u(V[?3atbNha/2jSFH-oD]'he?Y3S9I^>-!.Y~>
ZiC=5&0*)U5u(V[?3atbNha/2jSFH-oD]'he?Y3S9I^>-!.Y~>
ZiC=5&0*)U5u(V[?3atbNha/2jSFH-oD]'he?Y3S9I^>-!.Y~>
ZiC=6'dbk1=_`<[J-UamVROY"lMH/4oD]'ie[(BU9I^>-!.Y~>
ZiC=6'dbk1=_`<[J-UamVROY"lMH/4oD]'ie[(BU9I^>-!.Y~>
ZiC=6'dbk1=_`<[J-UamVROY"lMH/4oD]'ie[(BU9I^>-!.Y~>
ZiC=7)_a`dEJL(\Ta.Bu]unpdn,.b:oD]'he?Y3S9I^>-!.Y~>
ZiC=7)_a`dEJL(\Ta.Bu]unpdn,.b:oD]'he?Y3S9I^>-!.Y~>
ZiC=7)_a`dEJL(\Ta.Bu]unpdn,.b:oD]'he?Y3S9I^>-!.Y~>
ZiC=8+Zi\BM5.c\_["0*e_T?Sp&0IAoD]'he?Y0R9I^>-!.Y~>
ZiC=8+Zi\BM5.c\_["0*e_T?Sp&0IAoD]'he?Y0R9I^>-!.Y~>
ZiC=8+Zi\BM5.c\_["0*e_T?Sp&0IAoD]'he?Y0R9I^>-!.Y~>
ZiC=:-:MErTtfI\jTjr4mI9cBqu20HoD]'heZt9S9I^>-!.Y~>
ZiC=:-:MErTtfI\jTjr4mI9cBqu20HoD]'heZt9S9I^>-!.Y~>
ZiC=:-:MErTtfI\jTjr4mI9cBqu20HoD]'heZt9S9I^>-!.Y~>
])W<A!WrQ/"pbbp;KJ)1f(XaqjSoJYe?Y3S9I^>-!.Y~>
])W<A!WrQ/"pbbp;KJ)1f(XaqjSoJYe?Y3S9I^>-!.Y~>
])W<A!WrQ/"pbbp;KJ)1f(XaqjSoJYe?Y3S9I^>-!.Y~>
])W<D$4mpk+XSp=C5/Lug\?@"jSoJYe?Y0R9I^>-!.Y~>
])W<D$4mpk+XSp=C5/Lug\?@"jSoJYe?Y0R9I^>-!.Y~>
])W<D$4mpk+XSp=C5/Lug\?@"jSoJYe?Y0R9I^>-!.Y~>
])W<H&f`5P4%3%^JsrsdiVA')jSoJYe?b6S9I^>-!.Y~>
])W<H&f`5P4%3%^JsrsdiVA')jSoJYe?b6S9I^>-!.Y~>
])W<H&f`5P4%3%^JsrsdiVA')jSoJYe?b6S9I^>-!.Y~>
])W<K)CRO6<F^*)R]XBSkPBc0jSoJZe?Y0R9I^>-!.Y~>
])W<K)CRO6<F^*)R]XBSkPBc0jSoJZe?Y0R9I^>-!.Y~>
])W<K)CRO6<F^*)R]XBSkPBc0jSoJZe?Y0R9I^>-!.Y~>
])W<N+uMnrDh=4KZG=fCmJDJ7jSoJZe?Y0R9I^>-!.Y~>
])W<N+uMnrDh=4KZG=fCmJDJ7jSoJZe?Y0R9I^>-!.Y~>
])W<N+uMnrDh=4KZG=fCmJDJ7jSoJZe?Y0R9I^>-!.Y~>
])W<R.R@3WM4q>lajf22o)+(=jSoJYe?b6S9I^>-!.Y~>
])W<R.R@3WM4q>lajf22o)+(=jSoJYe?b6S9I^>-!.Y~>
])W<R.R@3WM4q>lajf22o)+(=jSoJYe?b6S9I^>-!.Y~>
])W<U1/;S>UVGC8iTKV!q#5jEjSoJYe?Y0R9I^>-!.Y~>
])W<U1/;S>UVGC8iTKV!q#5jEjSoJYe?Y0R9I^>-!.Y~>
])W<U1/;S>UVGC8iTKV!q#5jEjSoJYe?Y0R9I^>-!.Y~>
])W9X3a-m#^#&MYq>1!drdk+0rs/8IZB9#u.L>#6J,~>
])W9X3a-m#^#&MYq>1!drdk+0rs/8IZB9#u.L>#6J,~>
])W9X3a-m#^#&MYq>1!drdk+0rs/8IZB9#u.L>#6J,~>
_Z1/I":,AF&eu9<:Mu,laln<Uj8TVeq=X=Ilfd3?Tn6cC-4&T2J,~>
_Z1/I":,AF&eu9<:Mu,laln<Uj8TVeq=X=Ilfd3?Tn6cC-4&T2J,~>
_Z1/I":,AF&eu9<:Mu,laln<Uj8TVeq=X=Ilfd3?Tn6cC-4&T2J,~>
_Z1/J$5+7$.Pa%\BnMtcdHcA`j8TVbn`f#cdE0(sM/QBU+U6p+J,~>
_Z1/J$5+7$.Pa%\BnMtcdHcA`j8TVbn`f#cdE0(sM/QBU+U6p+J,~>
_Z1/J$5+7$.Pa%\BnMtcdHcA`j8TVbn`f#cdE0(sM/QBU+U6p+J,~>
_Z1/K&0*)U5u(U$K:/m\g$aLlj8TV^l.jY(\#Z$SEEkse)[54$J,~>
_Z1/K&0*)U5u(U$K:/m\g$aLlj8TV^l.jY(\#Z$SEEkse)[54$J,~>
_Z1/K&0*)U5u(U$K:/m\g$aLlj8TV^l.jY(\#Z$SEEkse)[54$J,~>
_Z1/L'dbk1=_`;BSZ]`SiUVR"j8TV[iR#?BSW%o1=\(Iu'a3LrJ,~>
_Z1/L'dbk1=_`;BSZ]`SiUVR"j8TV[iR#?BSW%o1=\(Iu'a3LrJ,~>
_Z1/L'dbk1=_`;BSZ]`SiUVR"j8TV[iR#?BSW%o1=\(Iu'a3LrJ,~>
_Z1/M)_a`dEJL'b\&?YKl1KW-j8TVXfu1%]K5Ojf5rC&1&-LnlJ,~>
_Z1/M)_a`dEJL'b\&?YKl1KW-j8TVXfu1%]K5Ojf5rC&1&-LnlJ,~>
_Z1/M)_a`dEJL'b\&?YKl1KW-j8TVXfu1%]K5Ojf5rC&1&-LnlJ,~>
_Z1/N+Zi\BM5.c+dFmLCnbIb9j8TVTdC5[!BhpcF.O#cD$3K2eJ,~>
_Z1/N+Zi\BM5.c+dFmLCnbIb9j8TVTdC5[!BhpcF.O#cD$3K2eJ,~>
_Z1/N+Zi\BM5.c+dFmLCnbIb9j8TVTdC5[!BhpcF.O#cD$3K2eJ,~>
_Z1/P-:MErTtfIJlgOE;q>>gDj8TVQafCA<:G<Y$&e59T"9IK^J,~>
_Z1/P-:MErTtfIJlgOE;q>>gDj8TVQafCA<:G<Y$&e59T"9IK^J,~>
_Z1/P-:MErTtfIJlgOE;q>>gDj8TVQafCA<:G<Y$&e59T"9IK^J,~>
aoDnP!WrQ/"pbbp;KJ)1f(Xaqj8TSfr;6?dq"NXYS9nF#);5(@~>
aoDnP!WrQ/"pbbp;KJ)1f(Xaqj8TSfr;6?dq"NXYS9nF#);5(@~>
aoDnP!WrQ/"pbbp;KJ)1f(Xaqj8TSfr;6?dq"NXYS9nF#);5(@~>
aoDnS$4mpk+XSp=C5/Lug\?@"jSo_hq"!h8iS<#!UPESZ1)8LCJ,~>
aoDnS$4mpk+XSp=C5/Lug\?@"jSo_hq"!h8iS<#!UPESZ1)8LCJ,~>
aoDnS$4mpk+XSp=C5/Lug\?@"jSo_hq"!h8iS<#!UPESZ1)8LCJ,~>
aoDnW&f`5P4%3%^JsrsdiVA')jSo_fo'"r[ahP6WM/cZa.MCG8J,~>
aoDnW&f`5P4%3%^JsrsdiVA')jSo_fo'"r[ahP6WM/cZa.MCG8J,~>
aoDnW&f`5P4%3%^JsrsdiVA')jSo_fo'"r[ahP6WM/cZa.MCG8J,~>
aoDnZ)CRO6<F^*)R]XBSkPBc0jSo_emG?1)ZD3Y9Dd5gj+qE<,J,~>
aoDnZ)CRO6<F^*)R]XBSkPBc0jSo_emG?1)ZD3Y9Dd5gj+qE<,J,~>
aoDnZ)CRO6<F^*)R]XBSkPBc0jSo_emG?1)ZD3Y9Dd5gj+qE<,J,~>
aoDn]+uMnrDh=4KZG=fCmJDJ7jSo_dkL75KRYGln<CSnq)@P7!J,~>
aoDn]+uMnrDh=4KZG=fCmJDJ7jSo_dkL75KRYGln<CSnq)@P7!J,~>
aoDn]+uMnrDh=4KZG=fCmJDJ7jSo_dkL75KRYGln<CSnq)@P7!J,~>
aoDna.R@3WM4q>lajf22o)+(=jSo_ciQ8?nJne1P4"r!$&d[1kJ,~>
aoDna.R@3WM4q>lajf22o)+(=jSo_ciQ8?nJne1P4"r!$&d[1kJ,~>
aoDna.R@3WM4q>lajf22o)+(=jSo_ciQ8?nJne1P4"r!$&d[1kJ,~>
aoDnd1/;S>UVGC8iTKV!q#5jEjSo_bgV9M<C/-K1+WD.-$3]&_J,~>
aoDnd1/;S>UVGC8iTKV!q#5jEjSo_bgV9M<C/-K1+WD.-$3]&_J,~>
aoDnd1/;S>UVGC8iTKV!q#5jEjSo_bgV9M<C/-K1+WD.-$3]&_J,~>
aoDkg3a-m#^#&MYq>1!drdk+0rsneS[?P`10b=Tp"U"o/!SRO(~>
aoDkg3a-m#^#&MYq>1!drdk+0rsneS[?P`10b=Tp"U"o/!SRO(~>
aoDkg3a-m#^#&MYq>1!drdk+0rsneS[?P`10b=Tp"U"o/!SRO(~>
aoDV`4'd?0_rZILli.4hqtKaPmHNd0jTjYWTn6cC-4&'#J,~>
aoDV`4'd?0_rZILli.4hqtKaPmHNd0jTjYWTn6cC-4&'#J,~>
aoDV`4'd?0_rZILli.4hqtKaPmHNd0jTjYWTn6cC-4&'#J,~>
aoDV`4'd?0_rZILli.4gp$Lkse]l)0_[!lMM/QBU+U6BqJ,~>
aoDV`4'd?0_rZILli.4gp$Lkse]l)0_[!lMM/QBU+U6BqJ,~>
aoDV`4'd?0_rZILli.4gp$Lkse]l)0_[!lMM/QBU+U6BqJ,~>
aoDV`4'd?0_rZILli.4fn)N!A]s4C0Ta.*CEEkse)[4[jJ,~>
aoDV`4'd?0_rZILli.4fn)N!A]s4C0Ta.*CEEkse)[4[jJ,~>
aoDV`4'd?0_rZILli.4fn)N!A]s4C0Ta.*CEEkse)[4[jJ,~>
aoDVa4C3Q3_rZILli.4elIj7fVNli2J-UF9=\(Iu'a2tcJ,~>
aoDVa4C3Q3_rZILli.4elIj7fVNli2J-UF9=\(Iu'a2tcJ,~>
aoDVa4C3Q3_rZILli.4elIj7fVNli2J-UF9=\(Iu'a2tcJ,~>
aoDV`4'd?0_rZILli.4djNkB3Nd,(1?3aY/5rC&1&-LA]J,~>
aoDV`4'd?0_rZILli.4djNkB3Nd,(1?3aY/5rC&1&-LA]J,~>
aoDV`4'd?0_rZILli.4djNkB3Nd,(1?3aY/5rC&1&-LA]J,~>
aoDV`4'd?0_rZILli.4bhScFUG$IB149mo&.O#cD$3JZVJ,~>
aoDV`4'd?0_rZILli.4bhScFUG$IB149mo&.O#cD$3JZVJ,~>
aoDV`4'd?0_rZILli.4bhScFUG$IB149mo&.O#cD$3JZVJ,~>
aoDV`4'd?0_rZILli.4aft*]%?9f\1)@%,p&e59T"9HsOJ,~>
aoDV`4'd?0_rZILli.4aft*]%?9f\1)@%,p&e59T"9HsOJ,~>
aoDV`4'd?0_rZILli.4aft*]%?9f\1)@%,p&e59T"9HsOJ,~>
aoDV`4'd?0_rZILq>UWtr;6?dq"aXhm`hkmCJ$#]_uP;~>
aoDV`4'd?0_rZILq>UWtr;6?dq"aXhm`hkmCJ$#]_uP;~>
aoDV`4'd?0_rZILq>UWtr;6?dq"aXhm`hkmCJ$#]_uP;~>
aoDV`4'd?0_rZILqYpg"q"!h8iS<#\eHa@(Q$?P!,6u-eJ,~>
aoDV`4'd?0_rZILqYpg"q"!h8iS<#\eHa@(Q$?P!,6u-eJ,~>
aoDV`4'd?0_rZILqYpg"q"!h8iS<#\eHa@(Q$?P!,6u-eJ,~>
aoDV`4'd?0_rZILqYpfuo'"r[ahP7[ZNmUtI:Z,2*X9O_J,~>
aoDV`4'd?0_rZILqYpfuo'"r[ahP7[ZNmUtI:Z,2*X9O_J,~>
aoDV`4'd?0_rZILqYpfuo'"r[ahP7[ZNmUtI:Z,2*X9O_J,~>
aoDV`4'd?0_rZILqYpftmG?1)ZD3Z\OU$hiAPt`C(^7hXJ,~>
aoDV`4'd?0_rZILqYpftmG?1)ZD3Z\OU$hiAPt`C(^7hXJ,~>
aoDV`4'd?0_rZILqYpftmG?1)ZD3Z\OU$hiAPt`C(^7hXJ,~>
aoDV`4'd?0_rZILqYpfskL75KRYGn[D?jr^9g:<T&d6,QJ,~>
aoDV`4'd?0_rZILqYpfskL75KRYGn[D?jr^9g:<T&d6,QJ,~>
aoDV`4'd?0_rZILqYpfskL75KRYGn[D?jr^9g:<T&d6,QJ,~>
aoDV`4'd?0_rZILqYpfriQ8?nJne3[9F"0T2Cfpe%0ONKJ,~>
aoDV`4'd?0_rZILqYpfriQ8?nJne3[9F"0T2Cfpe%0ONKJ,~>
aoDV`4'd?0_rZILqYpfriQ8?nJne3[9F"0T2Cfpe%0ONKJ,~>
aoDV`4'd?0_rZILqYpfqgV9M<C/-M[.L.CI*Z,M!#6DaCJ,~>
aoDV`4'd?0_rZILqYpfqgV9M<C/-M[.L.CI*Z,M!#6DaCJ,~>
aoDV`4'd?0_rZILqYpfqgV9M<C/-M[.L.CI*Z,M!#6DaCJ,~>
aoDV`4'd?0_rZILqYpfpf!U``;DAaY#R(G;"U"o._Z52~>
aoDV`4'd?0_rZILqYpfpf!U``;DAaY#R(G;"U"o._Z52~>
aoDV`4'd?0_rZILqYpfpf!U``;DAaY#R(G;"U"o._Z52~>
aoDV`4'd?0_r[![#5n;io'bo.o&U,5^S-6h74&;J!.Y~>
aoDV`4'd?0_r[![#5n;io'bo.o&U,5^S-6h74&;J!.Y~>
aoDV`4'd?0_r[![#5n;io'bo.o&U,5^S-6h74&;J!.Y~>
aoDV`4'd?0_r[![#5RfRiRuW#o"t^GUPWnh4!=g9!.Y~>
aoDV`4'd?0_r[![#5RfRiRuW#o"t^GUPWnh4!=g9!.Y~>
aoDV`4'd?0_r[![#5RfRiRuW#o"t^GUPWnh4!=g9!.Y~>
aoDV`4'd?0_r[![#5.69d)<Dont?;YLN-Qg0H12'!.Y~>
aoDV`4'd?0_r[![#5.69d)<Dont?;YLN-Qg0H12'!.Y~>
aoDV`4'd?0_r[![#5.69d)<Dont?;YLN-Qg0H12'!.Y~>
aoDVa4C3Q3_r[![#4ga"^TO,dnpgslC0=(d-5?Zk!.Y~>
aoDVa4C3Q3_r[![#4ga"^TO,dnpgslC0=(d-5?Zk!.Y~>
aoDVa4C3Q3_r[![#4ga"^TO,dnpgslC0=(d-5?Zk!.Y~>
aoDV`4'd?0_r[![#4L6`Y*jo[nm2Q):-g`c*"W4[!.Y~>
aoDV`4'd?0_r[![#4L6`Y*jo[nm2Q):-g`c*"W4[!.Y~>
aoDV`4'd?0_r[![#4L6`Y*jo[nm2Q):-g`c*"W4[!.Y~>
aoDV`4'd?0_r[![#4'[GSV(WPniR.<1+FId&de]J!.Y~>
aoDV`4'd?0_r[![#4'[GSV(WPniR.<1+FId&de]J!.Y~>
aoDV`4'd?0_r[![#4'[GSV(WPniR.<1+FId&de]J!.Y~>
aoDV`4'd?0_r[![#3a10N,DEFneq`N'bUua#Qt19!.Y~>
aoDV`4'd?0_r[![#3a10N,DEFneq`N'bUua#Qt19!.Y~>
aoDV`4'd?0_r[![#3a10N,DEFneq`N'bUua#Qt19!.Y~>
aoDkg3a-m#^#&MYq>1!drhf]!rr)clqY9j[#2[%`HWiHJScF9~>
aoDkg3a-m#^#&MYq>1!drhf]!rr)clqY9j[#2[%`HWiHJScF9~>
aoDkg3a-m#^#&MYq>1!drhf]!rr)clqY9j[#2[%`HWiHJScF9~>
aoDnd1/;S>UVGC8iTKV!q#72k#5e)^lK$gTq:,\aUPESZ1)6A\J,~>
aoDnd1/;S>UVGC8iTKV!q#72k#5e)^lK$gTq:,\aUPESZ1)6A\J,~>
aoDnd1/;S>UVGC8iTKV!q#72k#5e)^lK$gTq:,\aUPESZ1)6A\J,~>
aoDna.R@3WM4q>lajf22o),Ec#5@NFg!@UJq6L:!M/cZa.MA<QJ,~>
aoDna.R@3WM4q>lajf22o),Ec#5@NFg!@UJq6L:!M/cZa.MA<QJ,~>
aoDna.R@3WM4q>lajf22o),Ec#5@NFg!@UJq6L:!M/cZa.MA<QJ,~>
aoDn]+uMnrDh=4KZG=fCmJEg]#5%$.aLS=@q2kl5Dd5gj+qC1EJ,~>
aoDn]+uMnrDh=4KZG=fCmJEg]#5%$.aLS=@q2kl5Dd5gj+qC1EJ,~>
aoDn]+uMnrDh=4KZG=fCmJEg]#5%$.aLS=@q2kl5Dd5gj+qC1EJ,~>
aoDnZ)CRO6<F^*)R]XBSkPD+V#4UHk\"f%5q/-CH<CSnq)@N,:J,~>
aoDnZ)CRO6<F^*)R]XBSkPD+V#4UHk\"f%5q/-CH<CSnq)@N,:J,~>
aoDnZ)CRO6<F^*)R]XBSkPD+V#4UHk\"f%5q/-CH<CSnq)@N,:J,~>
aoDnW&f`5P4%3%^JsrsdiVBDO#49sSVN,h+q+Lu]4"r!$&dY'/J,~>
aoDnW&f`5P4%3%^JsrsdiVBDO#49sSVN,h+q+Lu]4"r!$&dY'/J,~>
aoDnW&f`5P4%3%^JsrsdiVBDO#49sSVN,h+q+Lu]4"r!$&dY'/J,~>
aoDnS$4mpk+XSp=C5/Lug\@]H#3sI<Q$?P!q'lRq+WD.-$3Zq#J,~>
aoDnS$4mpk+XSp=C5/Lug\@]H#3sI<Q$?P!q'lRq+WD.-$3Zq#J,~>
aoDnS$4mpk+XSp=C5/Lug\@]H#3sI<Q$?P!q'lRq+WD.-$3Zq#J,~>
aoDnP!WrQ/"pbbp;KJ)1f(Z*B#3Nn#KO[=lp]q$-"U"o/!M0:A~>
aoDnP!WrQ/"pbbp;KJ)1f(Z*B#3Nn#KO[=lp]q$-"U"o/!M0:A~>
aoDnP!WrQ/"pbbp;KJ)1f(Z*B#3Nn#KO[=lp]q$-"U"o/!M0:A~>
_Z0oI.SO`AZISZWrs&Dsp%%S;kkX<EcENFP<&PPR!.Y~>
_Z0oI.SO`AZISZWrs&Dsp%%S;kkX<EcENFP<&PPR!.Y~>
_Z0oI.SO`AZISZWrs&Dsp%%S;kkX<EcENFP<&PPR!.Y~>
_Z0oI.SO`AZIJTVrs&;hl/C=Can`gYYa0ZG81kU;!.Y~>
_Z0oI.SO`AZIJTVrs&;hl/C=Can`gYYa0ZG81kU;!.Y~>
_Z0oI.SO`AZIJTVrs&;hl/C=Can`gYYa0ZG81kU;!.Y~>
_Z0oI.SO`BZIJTVrs&/\gsF!KX8/FnOaLb<4!kN"!.Y~>
_Z0oI.SO`BZIJTVrs&/\gsF!KX8/FnOaLb<4!kN"!.Y~>
_Z0oI.SO`BZIJTVrs&/\gsF!KX8/FnOaLb<4!kN"!.Y~>
_Z0oI.SO`BZdnfYrs&&Qd(c`SN;7u.F(/!30-1R`!.Y~>
_Z0oI.SO`BZdnfYrs&&Qd(c`SN;7u.F(/!30-1R`!.Y~>
_Z0oI.SO`BZdnfYrs&&Qd(c`SN;7u.F(/!30-1R`!.Y~>
_Z0oI.SO`BZIJTVrs%rF`3,M\DY[TC<(K)(+r1KG!.Y~>
_Z0oI.SO`BZIJTVrs%rF`3,M\DY[TC<(K)(+r1KG!.Y~>
_Z0oI.SO`BZIJTVrs%rF`3,M\DY[TC<(K)(+r1KG!.Y~>
_Z0oI.SO`AZIJTVrs%f:\"/.c:\d*W2D-<t((LP0!.Y~>
_Z0oI.SO`AZIJTVrs%f:\"/.c:\d*W2D-<t((LP0!.Y~>
_Z0oI.SO`AZIJTVrs%f:\"/.c:\d*W2D-<t((LP0!.Y~>
_Z0oI.SO`AZISZWrs%]/X,Lpl0_lUk(DIDi#mLKm!.Y~>
_Z0oI.SO`AZISZWrs%]/X,Lpl0_lUk(DIDi#mLKm!.Y~>
_Z0oI.SO`AZISZWrs%]/X,Lpl0_lUk(DIDi#mLKm!.Y~>
_Z1/P.8"B7Xj-;.q"jmcrVk:G"oeGsqYBpVpBKKfS9nF#)1_bf!.Y~>
_Z1/P.8"B7Xj-;.q"jmcrVk:G"oeGsqYBpVpBKKfS9nF#)1_bf!.Y~>
_Z1/P.8"B7Xj-;.q"jmcrVk:G"oeGsqYBpVpBKKfS9nF#)1_bf!.Y~>
_Z1/O,=#LYQ*JTehW3tjp&!8=#QFMhmH<H`f(.>q^S?R!:,3Q8!!!"L~>
_Z1/O,=#LYQ*JTehW3tjp&!8=#QFMhmH<H`f(.>q^S?R!:,3Q8!!!"L~>
_Z1/O,=#LYQ*JTehW3tjp&!8=#QFMhmH<H`f(.>q^S?R!:,3Q8!!!"L~>
_Z1/N*]?`(I?gqG`6[,smJ#-1#Q4/VhUKZ^[IUX.To!bl5q3Lu!!!"L~>
_Z1/N*]?`(I?gqG`6[,smJ#-1#Q4/VhUKZ^[IUX.To!bl5q3Lu!!!"L~>
_Z1/N*]?`(I?gqG`6[,smJ#-1#Q4/VhUKZ^[IUX.To!bl5q3Lu!!!"L~>
_Z1/M(b7gKAU'0(Wk$4%jn.(&#Q*oFcbQi]Pk'q@Jo=mb2'NN]!!!"L~>
_Z1/M(b7gKAU'0(Wk$4%jn.(&#Q*oFcbQi]Pk'q@Jo=mb2'NN]!!!"L~>
_Z1/M(b7gKAU'0(Wk$4%jn.(&#Q*oFcbQi]Pk'q@Jo=mb2'NN]!!!"L~>
_Z1/L&g8qn9jDI^OJB;-h=/qo#Q!W4^oa&[F7O2Q@oYuW-lNJE!!!"L~>
_Z1/L&g8qn9jDI^OJB;-h=/qo#Q!W4^oa&[F7O2Q@oYuW-lNJE!!!"L~>
_Z1/L&g8qn9jDI^OJB;-h=/qo#Q!W4^oa&[F7O2Q@oYuW-lNJE!!!"L~>
_Z1/K%2U0<2F'l@G)iH5ea:ld#Pm?#Z'p8Z;Y!Kc76<1M*"iO.!!!"L~>
_Z1/K%2U0<2F'l@G)iH5ea:ld#Pm?#Z'p8Z;Y!Kc76<1M*"iO.!!!"L~>
_Z1/K%2U0<2F'l@G)iH5ea:ld#Pm?#Z'p8Z;Y!Kc76<1M*"iO.!!!"L~>
_Z1/I#7V:_*[<+!>^2O=c0EgY#Pd&gUP<MY1%Hdu-6X<C&./Pk!!!"L~>
_Z1/I#7V:_*[<+!>^2O=c0EgY#Pd&gUP<MY1%Hdu-6X<C&./Pk!!!"L~>
_Z1/I#7V:_*[<+!>^2O=c0EgY#Pd&gUP<MY1%Hdu-6X<C&./Pk!!!"L~>
_>k#G!sAc3#7)J>@t^Ysk1'D9pXZa:F&F_(nH]:&"U"o/!J(4N!.Y~>
_>k#G!sAc3#7)J>@t^Ysk1'D9pXZa:F&F_(nH]:&"U"o/!J(4N!.Y~>
_>k#G!sAc3#7)J>@t^Ysk1'D9pXZa:F&F_(nH]:&"U"o/!J(4N!.Y~>
])W$O2H4a[Yg1b[#N!4hJn%4r#_<!@!.Y~>
])W$O2H4a[Yg1b[#N!4hJn%4r#_<!@!.Y~>
])W$O2H4a[Yg1b[#N!4hJn%4r#_<!@!.Y~>
])W$L/kBH!QE\lV#JHmhDcJkB#(Zd>!.Y~>
])W$L/kBH!QE\lV#JHmhDcJkB#(Zd>!.Y~>
])W$L/kBH!QE\lV#JHmhDcJkB#(Zd>!.Y~>
])W$H-9G(:I$)pP#FpQh>XgCd"b?[=!.Y~>
])W$H-9G(:I$)pP#FpQh>XgCd"b?[=!.Y~>
])W$H-9G(:I$)pP#FpQh>XgCd"b?[=!.Y~>
])W$E*\TcU@WU%L#CC2g82hk1"G$R<!.Y~>
])W$E*\TcU@WU%L#CC2g82hk1"G$R<!.Y~>
])W$E*\TcU@WU%L#CC2g82hk1"G$R<!.Y~>
])W$A(*YCn86")F#?jkg2(0FU"+^I;!.Y~>
])W$A(*YCn86")F#?jkg2(0FU"+^I;!.Y~>
])W$A(*YCn86")F#?jkg2(0FU"+^I;!.Y~>
])W$>%Mg*4/iM3A#<FUi+rV($!eC@:!.Y~>
])W$>%Mg*4/iM3A#<FUi+rV($!eC@:!.Y~>
])W$>%Mg*4/iM3A#<FUi+rV($!eC@:!.Y~>
])W$;"pk_M'Go7;#8n6h%LWOF!J(79!.Y~>
])W$;"pk_M'Go7;#8n6h%LWOF!J(79!.Y~>
])W$;"pk_M'Go7;#8n6h%LWOF!J(79!.Y~>
JH16$kQ$,~>
JH16$kQ$,~>
JH16$kQ$,~>
JH16$kQ$,~>
JH16$kQ$,~>
JH16$kQ$,~>
JH16$kQ$,~>
JH16$kQ$,~>
JH16$kQ$,~>
JH16$kQ$,~>
JH16$kQ$,~>
JH16$kQ$,~>
JH16$kQ$,~>
JH16$kQ$,~>
JH16$kQ$,~>
JH16$kQ$,~>
JH16$kQ$,~>
JH16$kQ$,~>
JH16$kQ$,~>
JH16$kQ$,~>
JH16$kQ$,~>
JH16$kQ$,~>
JH16$kQ$,~>
JH16$kQ$,~>
JH16$kQ$,~>
JH16$kQ$,~>
JH16$kQ$,~>
JH16$kQ$,~>
JH16$kQ$,~>
JH16$kQ$,~>
JH16$kQ$,~>
JH16$kQ$,~>
JH16$kQ$,~>
JH16$kQ$,~>
JH16$kQ$,~>
JH16$kQ$,~>
JH16$kQ$,~>
JH16$kQ$,~>
JH16$kQ$,~>
JH16$kQ$,~>
JH16$kQ$,~>
JH16$kQ$,~>
JH16$kQ$,~>
JH16$kQ$,~>
JH16$kQ$,~>
JH16$kQ$,~>
JH16$kQ$,~>
JH16$kQ$,~>
JH16$kQ$,~>
JH16$kQ$,~>
JH16$kQ$,~>
JH16$kQ$,~>
JH16$kQ$,~>
JH16$kQ$,~>
JH16$kQ$,~>
JH16$kQ$,~>
JH16$kQ$,~>
JH16$kQ$,~>
JH16$kQ$,~>
JH16$kQ$,~>
JH16$kQ$,~>
JH16$kQ$,~>
JH16$kQ$,~>
JH16$kQ$,~>
JH16$kQ$,~>
JH16$kQ$,~>
JH16$kQ$,~>
JH16$kQ$,~>
JH16$kQ$,~>
JH16$kQ$,~>
JH16$kQ$,~>
JH16$kQ$,~>
JH16$kQ$,~>
JH16$kQ$,~>
JH16$kQ$,~>
JH16$kQ$,~>
JH16$kQ$,~>
JH16$kQ$,~>
JH16$kQ$,~>
JH16$kQ$,~>
JH16$kQ$,~>
JH16$kQ$,~>
JH16$kQ$,~>
JH16$kQ$,~>
JH16$kQ$,~>
JH16$kQ$,~>
JH16$kQ$,~>
%%EndData
showpage
%%Trailer
end
%%EOF
